[
   {
      "name":"ROLE_ADMIN",
      "description": "Super user role, full access"
   },
   {
      "name":"ROLE_USER",
      "description": "Front end user, no admin access"
   },
   {
      "name":"ROLE_MANAGER",
      "description": "Can access limited functions in admin site"
   },
   {
      "name":"ROLE_TECH",
      "description": "Can access only technical functions"
   },
   {
      "name":"ROLE_SYSTEM",
      "description": "Used by system"
   }
]